Shiny Case Study
…
Shiny Case Study

Lets try to make a Shiny app thats a bit more complex. The data well be using comes from the National Electronic Injury Surveillance System (NEISS) thats collected by Consumer Product Safety Commission (CPSC). The primary purpose of NEISS is to collect data on consumer product-related injuries occurring in the United States. This data is what CPSC uses to produce nationwide estimates of product-related injuries. This is a long-term study that records all accidents seen in a representative sample of hospitals in the United States. Its an interesting dataset to explore because its readily understandable, and each observation is accompanied by a short narrative that explains how the accident occured.

Well also be basing our app on the case study found in Chapter 5 of Mastering Shiny by Hadley Wickham. All of the code and data we use can be found on GitHub.

Due to the size of the dataset, here we will only use data from 2017. The main dataset well use is injuries which contains ~250,000 observations and 10 variables.

injuries <- vroom::vroom("injuries.tsv.gz")
injuries

## # A tibble: 255,064 x 10
##    trmt_date    age sex   race  body_part diag  location prod_code weight
##    <date>     <dbl> <chr> <chr> <chr>     <chr> <chr>        <dbl>  <dbl>
##  1 2017-01-01    71 male  white Upper Tr Cont Other P      1807   77.7
##  2 2017-01-01    16 male  white Lower Arm Burn Home           676   77.7
##  3 2017-01-01    58 male  white Upper Tr Cont Home           649   77.7
##  4 2017-01-01    21 male  white Lower Tr Stra Home          4076   77.7
##  5 2017-01-01    54 male  white Head      Inte Other P      1807   77.7
##  6 2017-01-01    21 male  white Hand      Frac Home          1884   77.7
##  7 2017-01-01    35 fema not  Lower Tr Stra Home          1807   87.1
##  8 2017-01-01    62 fema not  Lower Arm Lace Home          4074   87.1
##  9 2017-01-01    22 male  not  Knee      Disl Home          4076   87.1
## 10 2017-01-01    58 fema not  Lower Leg Frac Home          1842   87.1
## #  with 255,054 more rows, and 1 more variable: narrative <chr>
…
location is the place where it occurred (like home or school).

prod_code is the primary product associated with the injury.

weight is the statistical weight giving the estimated number of people who would suffer this injury if this dataset was scaled to the entire population of the US.

narrative is a brief story about how the accident occurred.

Well pair this dataset with two other data frames for additional context. products lets us look up the product name from the product code, and population tells us the total US population in 2017 for each combination of age and sex.

products <- vroom::vroom("products.tsv")
products

## # A tibble: 38 x 2
##    prod_code title                                   
##        <dbl> <chr>                                   
##  1       464 knives, not elsewhere classified        
##  2       474 tableware and accessories               
##  3       604 desks, chests, bureaus or buffets       
##  4       611 bathtubs or showers                     
##  5       649 toilets                                 
##  6       676 rugs or carpets, not specified          
##  7       679 sofas, couches, davenports, divans or st
##  8      1141 containers, not specified               
##  9      1200 sports or recreational activity, n.e.c. 
## 10      1205 basketball (activity, apparel or equip.)
## #  with 28 more rows

population <- vroom::vroom("population.tsv")
population

## # A tibble: 170 x 3
##      age sex    population
##    <dbl> <chr>       <dbl>
##  1     0 female    1924145
##  2     0 male      2015150
##  3     1 female    1943534
##  4     1 male      2031718
##  5     2 female    1965150
##  6     2 male      2056625
##  7     3 female    1956281
##  8     3 male      2050474
##  9     4 female    1953782
## 10     4 male      2042001
## #  with 160 more rows
…
Its always a best practice to explore your data before starting to create a Shiny app. That way you can get an idea of the information available to you and the possible elements you can include in your app.

Lets start with looking at the product associated with the most injuries: "stairs or steps" (product code number 1842). First lets filter out the injuries associated with this product.

selected <- injuries %>% filter(prod_code == 1842)
nrow(selected)

## [1] 30647

Now lets look at summary statistics about body part, diagnosis, and location where the injury occurred. If we include weight we can interpret the results as estimated total injuries across the whole US.

selected %>% count(diag, wt = weight, sort = TRUE)

## # A tibble: 23 x 2
##    diag                        n
##    <chr>                   <dbl>
##  1 Strain, Sprain        267892.
##  2 Fracture              243082.
##  3 Other Or Not Stated   227515.
##  4 Contusion Or Abrasion 195172.
##  5 Inter Organ Injury    111340.
##  6 Laceration             89190.
##  7 Concussion             18983.
##  8 Dislocation            16556.
##  9 Hematoma               13080.
## 10 Nerve Damage            7705.
## #  with 13 more rows

selected %>% count(body_part, wt = weight, sort = TRUE)

## # A tibble: 25 x 2
##    body_part         n
##    <chr>         <dbl>
##  1 Ankle       183470.
##  2 Head        174725.
##  3 Lower Trunk 150459.
##  4 Knee        112162.
##  5 Upper Trunk  98197.
##  6 Face         73815.
##  7 Foot         73388.
##  8 Shoulder     52637.
##  9 Lower Leg    52254.
## 10 Wrist        39202.
## #  with 15 more rows
…
As you might expect, steps are most often associated with sprains, strains and fractures of the ankle ocurring at home.

We can also explore the pattern across age and sex. We have enough data here that a table is not that useful, and a plot makes the patterns more obvious:

summary <- selected %>% 
           count(age, sex, wt = weight)
summary

## # A tibble: 204 x 3
##      age sex         n
##    <dbl> <chr>   <dbl>
##  1     0 female  3714.
##  2     0 male    3981.
##  3     1 female 12155.
##  4     1 male   12898.
##  5     2 female  6949.
##  6     2 male    9730.
##  7     3 female  4542.
##  8     3 male    8404.
##  9     4 female  3618.
## 10     4 male    4845.
## #  with 194 more rows
…
We see a big spike when children are learning to walk, a flattening off over middle age, and then a gradual decline after age 50. Interestingly, the number of injuries is much higher for women.

One problem with interpreting this pattern is that we know that there are fewer older people than younger people, so the population available to be injured is smaller. We can control for this by comparing the number of people injured with the total population and calculating an injury rate. Lets use a rate per 10,000 because that gives a number thats easy to interpret.

summary <- selected %>% 
           count(age, sex, wt = weight) %>% 
           left_join(population, by = c("age", "sex")) %>% 
           mutate(rate = n / population * 10^4)

summary

## # A tibble: 204 x 5
##      age sex         n population  rate
##    <dbl> <chr>   <dbl>      <dbl> <dbl>
##  1     0 female  3714.    1924145  19.3
##  2     0 male    3981.    2015150  19.8
##  3     1 female 12155.    1943534  62.5
##  4     1 male   12898.    2031718  63.5
##  5     2 female  6949.    1965150  35.4
##  6     2 male    9730.    2056625  47.3
##  7     3 female  4542.    1956281  23.2
##  8     3 male    8404.    2050474  41.0
##  9     4 female  3618.    1953782  18.5
## 10     4 male    4845.    2042001  23.7
## #  with 194 more rows
…
