confounding.utf8.md
…
Does this mean that margarine causes divorces? Or do divorces cause people to eat more margarine? Of course the answer to both of these questions is no. This is just an example of what we call a spurious correlation.

You can see many more absurd examples on this wesbsite completely dedicated to spurious correlations.

The cases presented in the spurious correlations site are all examples of what is generally called data dredging, data fishing, or data snooping. Its basically a form of what in the US they call cherry picking. An example of data dredging would be if you look through many results produced by a random process and pick the one that shows a relationship that supports a theory you want to defend.

A Monte Carlo simulation can be used to show how data dredging can result in finding high correlations among uncorrelated variables. We will save the results of our simulation into a tibble:

N <- 25
G <- 1000000
sim_data <- tibble(group = rep(1:G, each = N), X = rnorm(N*G), Y = rnorm(N*G))
sim_data

## # A tibble: 25,000,000 x 3
##    group        X       Y
##    <int>    <dbl>   <dbl>
##  1     1 -0.442    0.544 
##  2     1 -0.591    2.34  
##  3     1  0.884    0.694 
##  4     1  0.564   -0.479 
##  5     1 -1.27     1.21  
##  6     1 -0.626   -0.453 
##  7     1  0.00943  0.0252
##  8     1 -0.470   -0.768 
##  9     1 -1.14    -0.504 
## 10     1  0.672    0.0106
## #  with 24,999,990 more rows

The first column denotes group and we simulated \(G\) groups each with 25 observations. For each group we generate 25 observations, which are stored in the second and third columns. These are just random independent normally distributed data. So we know, because we constructed the simulation, that \(X\) and \(Y\) are not correlated.

Next, we compute the correlation between X and Y for each group and look at the max:

res <- sim_data %>% group_by(group) %>% summarize(r = cor(X, Y)) %>% arrange(desc(r))
res

## # A tibble: 1,000,000 x 2
##     group     r
##     <int> <dbl>
##  1  52651 0.792
##  2 816094 0.788
##  3   5382 0.773
##  4 525118 0.772
##  5 468079 0.766
##  6 509999 0.765
##  7 700251 0.755
##  8 432578 0.755
##  9 401224 0.755
## 10  63663 0.748
## #  with 999,990 more rows
…
