linear-models.utf8.md
…
The manipulation verbs, select, filter, mutate, and arrange preserve the class of the input: if they receive a data frame they return a data frame. But tibbles are the default data frame in the tidyverse.

Tibbles are very similar to data frames. You can think of them as a modern version of data frames. Here we briefly describe three important differences.

Tibbles diplsay better

The print method for tibbles is more readable than that of data frames. To see this compare these two outputs:

data

Data is a data frame with many rows and columns. Nevertheless the output shows everything, wraps around and is hard to read. It is so bad we dont print it here, we let you print it on your screen. If you convert this data frame to a tibble data frame, the output is much more readable:

as_tibble(data)

## # A tibble: 2,500 x 17
##    gender plural   age race  parity married   bwt smokeN drinkN firstep welfare
##    <fct>   <int> <int> <fct>  <int>   <int> <int>  <int>  <int>   <int>   <int>
##  1 F           1    31 hisp      4       1  3118      0      0       1       0
##  2 M           1    23 white      0       1  3466      0      0       1       0
##  3 F           1    24 black      1       0  3147      0      0       1       0
##  4 M           1    26 hisp      2       1  3969      0      0       1       0
##  5 M           1    34 white      0       0  3005      0      0       1       0
##  6 M           1    15 black      0       0  2920      0      0       1       0
##  7 F           1    24 asian      4       1  3260      0      0       1       0
##  8 M           1    30 white      1       1  4451      0      0       1       0
##  9 F           1    23 asian      0       0  3106      0      0       1       0
## 10 F           1    37 white      2       1  3345      0      0       1       0
## #  with 2,490 more rows, and 6 more variables: smoker <fct>, drinker <fct>,
## #   wpre <int>, wgain <int>, education <int>, gestation <int>
…
