Lab 4: More Visualization with ggplot2
…
Also note that we can use the name parameter in the scale_ functions to set the title of the legend.

The previous plot was hard to read because the countries were in alphabetical order. Instead, maybe we can order the countries by the maximum population (i.e.the population they reached in the most recent year available in gapminder).

First, use group_by and summarize to calculate the maximum population (over years) for each country.

gapminder_africa %>%
  group_by(country) %>%
  summarize(max_pop = max(population))

## # A tibble: 51 x 2
##    country                  max_pop
##    <fct>                      <dbl>
##  1 Algeria                       NA
##  2 Angola                        NA
##  3 Benin                         NA
##  4 Botswana                      NA
##  5 Burkina Faso                  NA
##  6 Burundi                       NA
##  7 Cameroon                      NA
##  8 Cape Verde                    NA
##  9 Central African Republic      NA
## 10 Chad                          NA
## #  with 41 more rows

gapminder_africa %>%
  group_by(country) %>%
  summarize(max_pop = max(population, na.rm = TRUE))

## # A tibble: 51 x 2
##    country                   max_pop
##    <fct>                       <dbl>
##  1 Algeria                  39666519
##  2 Angola                   25021974
##  3 Benin                    10879829
##  4 Botswana                  2262485
##  5 Burkina Faso             18105570
##  6 Burundi                  11178921
##  7 Cameroon                 23344179
##  8 Cape Verde                 520502
##  9 Central African Republic  4900274
## 10 Chad                     14037472
## #  with 41 more rows
…
